{
	"name": "Night Shell Switcher",
	"description": "Automatically change the GNOME shell theme to dark variant when Night Light activates.\n\nIMPORTANT: You must have enabled the User Themes extension.\n\nTHEME COMPATIBILITY:\nYour shell theme must have a `-dark variant`, e.g. `Yaru` and `Yaru-dark`.\nThese shell themes have been tested and work:\n- Arc\n- Materia\n- Yaru\n\nLet me know if the theme you use works as well, or if it doesn't, I can try to make it work.\n\nDo you need to change your GTK theme as well? Try Night Theme Switcher! https://extensions.gnome.org/extension/2236/night-theme-switcher/",
	"uuid": "nightshellswitcher@romainvigier.fr",
	"url": "https://gitlab.com/rmnvgr/nightshellswitcher-gnome-shell-extension/",
	"version": 4,
	"shell-version": ["3.32", "3.34"],
	"gettext-domain": "nightshellswitcher@romainvigier.fr"
}
